\relax 
\@writefile{toc}{\contentsline {section}{\numberline {1}Introduction}{1}}
\@writefile{toc}{\contentsline {subsection}{\numberline {1.1}What is a Kinetic Data Structure?}{1}}
\@writefile{toc}{\contentsline {subsection}{\numberline {1.2}Why Use a Kinetic Data Structure?}{1}}
\newlabel{sec:whykds}{{1.2}{1}}
\@writefile{toc}{\contentsline {subsection}{\numberline {1.3}What is a Lazy Kinetic Data Structure?}{2}}
\@writefile{toc}{\contentsline {subsection}{\numberline {1.4}Why Use a Lazy Kinetic Data Structure?}{3}}
\newlabel{sec:why}{{1.4}{3}}
\@writefile{toc}{\contentsline {section}{\numberline {2}The Kinetic Heap API}{3}}
\@writefile{toc}{\contentsline {subsection}{\numberline {2.1}Heap Operations}{4}}
\@writefile{toc}{\contentsline {subsection}{\numberline {2.2}Eager KDS Operations}{4}}
\@writefile{toc}{\contentsline {subsection}{\numberline {2.3}Lazy KDS Operations}{4}}
\@writefile{toc}{\contentsline {subsection}{\numberline {2.4}A Note on Run-Time}{4}}
